text,cluster,label
0,WE NEED POLL WATCHERS - Vote Cheating Caught On Camera (POLL CHEATING/VOTER FRAUD) This Is America!,0,1
1,Sen. Cruz on Hannity: The Outcome I Want To See Is To Count Every Vote That Was Legally Cast,0,1
0,"Dave Rubin has lost his Allies | Feat. Sam Harris, Joe Rogan, Bret Weinstein etc.",1,1
1,Bill de Blasio’s daughter says Joe Biden stole the election & Kamala is the first female President,1,1
0,"VOTING FRAUD. 58,000 absentee ballots were lost.   6,000 ballots were illegally destroyed.",2,1
1,"Delaware County, PA. Watch the woman on the bottom left fill out multiple ballots and stamp them.",2,1
0,18 States Join The Fight With Texas In Voter Fraud Case Filed With The Supreme Court,3,2
1,Lincoln Project Forces Pennsylvania Law Firm To Drop Trump's Voter Fraud Lawsuit,3,2
0,11.19 Wayne Co. election drama; Giuliani voter fraud buffoonery; Trump ramps up attack on election,4,1
1,Media Announces Biden Victory...Then Rudy Giuliani Takes the Mic With Bomb About What’s to Come,4,1
0,Duplicates And Dead People: Hundreds Of Thousands Of Questionable Ballots Sent Out To LA County Vote,5,1
1,105% Voter Turnout in Milwaukee District; Voter Fraud Hearings in PA; New Lawsuits in 2 States,5,1
0,Donald Trump’s niece: – He's the weakest person I've ever known | Mary Trump | SVT/TV 2/Skavlan,6,3
1,"Trump Has Yet To Show Real Evidence Of Fraud, But Getting Him Out Of Office May Be A Bumpy Ride",6,3
0,Does TRUMP have a GOOD CHANCE?: Results without and without VOTER FRAUD: Dr Taylor Marshall Podcast,7,3
1,Is there a The COVID Vaccine? Has Biden Really Won? Why won't Trump Quit the Race?,7,3
0,President Trump slams Ilhan Omar over Veritas #BallotHarvesting videos; crowd chants “LOCK HER UP!”,8,4
1,Donald Trump’s Comments On Immigrants: They’re Rapists. They All Have AIDS | Velshi & Ruhle | MSNBC,8,4
0,"Dinesh D'Souza, Producer Of The ""Trump Card"" Documentary, Talks About The ""Cooked Up"" Vote Count.",9,1
1,"Unusual Ballots, '98% for Biden'; Voting Machine Missing for Days | Facts Matter",9,1
0,Fraudarea alegerilor din SUA - 50 de mii de hackeri români implicaţi,10,1
1,"Fraud in NV, Failure in GA, Impossible Numbers in MI - Jordan Sekulow on The Dove",10,1
0,Biden Campaign allegedly Caught in a major Voter Ballot Harvesting Scheme! Houston & in major Cities,11,1
1,GA Recount Auditors Call Multiple Ballots For Joe Biden That Were Actually Marked For Donald Trump,11,1
0,Dick and Dee Dee sing 'Thou Shall Not Steal',12,1
1,How to stop the big steal. Charlie Kirk with Sebastian Gorka on AMERICA First,12,1
0,HUGE Amount Of Democrats REGRET Voting For Biden! Over 17% Would NOT Have Voted For Him If They...,13,1
1,"Sidney Powell Says 7 Million Votes Taken From Trump, 10 Million Fraudulent Votes Given To Biden",13,1
0,"NEAL SUTZ   SPECIAL INTERVIEW   NOV 25, 2020   US ELECTIONS THE STRANGE CLUES LEADING TO SWISS GOV",14,1
1,ELECTION FRAUD 2020 ILLEGAL MAIL-IN BALLOTS IT'S NOT OVER Christian Patriot News MAGA QAnon Q+ Posts,14,1
0,"The crowd chants ""USA"" as Trump steps onto the field of the Army-Navy game.",15,4
1,AMAZING! President Trump Multiple FLYOVERS in Marine One in DC for March for Trump/Jericho March,15,4
0,"🔴 Watch LIVE: March For Trump in Washington, D.C. All Day LIVE Coverage",16,4
1,"RAW VIDEO: PRESIDENT Donald Trump FULL SPEECH at Valdosta, GA Rally 12/5/20",16,4
0,"Corey Lewandowski: We Will be Investigating Massive Allegations of Voter Fraud in GA, PA, AZ, ect.",17,1
1,Judicial Watch's Tom Fitton calls on FBI to investigate leaked footage from Georgia ballot facility,17,1
0,"Texas Lt. Gov. stiffs Pennsylvania Lt. Gov. of $2 million for finding voter fraud, by Republicans",18,1
1,Nixon v JFK: How the media ignored the biggest voter fraud sham in modern history (Pardes Live #182),18,1
0,"Tucker Carlson 11/4/20 ""FULL"" VOTER FRAUD Episode and Much More about this Honesty of this ELECTION",19,1
1,Vo+3R  F&^uD CAUGHT LIVE ON CNN ELECTION NIGHT..THEY FLIPPED THE NUMBERS ON LIVE AIR? CRAZY EVIDENCE,19,1
0,'Make Sure This Election Isn't Stolen': Boycott and Outside Voter Fraud Threaten High Stakes GA Runo,20,1
1,You Can Only Find Voter Fraud If You Check The Right Way: Hans von Spakovsky & Dennis Prager,20,1
0,NO SENSE of Data Analysis of Illinois Vote! It Appears ELECTION FRAUD Occurred Through WHOLE of USA!,21,1
1,*VOTER FRAUD* in Arizona! Making the voters use SHARPIE PENS so the votes for TRUMP are INVALID,21,1
0,"NY AG Letitia James Says ""Trump cannot avoid justice in the great state of New York"" | The View",22,3
1,"Trump Attorney Jordan Sekulow: MI, GA, PA and WI Are Required to Respond to Texas Case by Thursday",22,3
0,Lt. General Mcinerny Explains WHO/WHAT the Kraken IS & the Treason in this Election Fraud - 11/28/20,23,1
1,"Aussie Police Waking up, French attacking Police, Voter Fraud exposed & Sting operation under way",23,1
0,TRUMP CALLS IN: President Trump Phones In To Election 2020 Hearing In Pennsylvania,24,1
1,President Trump EXPOSES Voter Fraud: The Most Important Speech of His 1st Term the Media Ignored,24,1
0,The Arizona Secretary of State's Office is certifying the results of the 2020 General Election,25,3
1,GA Election Offical Says Recount Numbers Will NOT Be Certified Even If Election Numbers Don't Match,25,3
0,🔴#LIVE: Michigan State Senate Committee on Oversight Holds Hearing on Election Issues 12/1/20,26,3
1,Arizona State Legislature Public Hearing w/ Trump Legal Team Rudy Giuliani and Jenna Ellis,26,3
0,We Put Together Extensive and Inclusive Voter Fraud Organization in American History,27,1
1,"Joe Biden said he had the best voter fraud team in the world, ""they were good"" but we caught them",27,1
0,"💣💥SIDNEY - ""ITS MASSIVE CRIMINAL VOTER FRAUD..IS GOING TO BLOW THE MIND OF EVERYONE IN THIS COUNTRY⚡",28,1
1,AMERICA being INVADED by CHINA! Vernon Brown #STOPTHESTEAL LEFT must be STOPPED! 'VICTORY RALLY' GA,28,1
0,"Richard hopkins postal worker| Postal worker recanted allegations of ballot tampering, officials say",29,1
1,2nd PA USPS whistleblower: Postmaster ordered late ballots picked up; thinks they will be BACKDATED,29,1
0,Emails reveal Hunter Biden tried to cash in on behalf of family with Chinese firm | New York Post,30,4
1,Biden necesita dinero para enfrentar demandas. La guerra con China “es inevitable” | China en Foco,30,4
0,"MI House Speaker: “We’ve Heard Reports Of Fraud, We’ve Heard Reports Of Irregularities”",31,1
1,"'Biggest fraud' in US history—up to 300,000 fake people voted in Arizona election: expert | NTD",31,1
0,"Timcast IRL - Project Veritas PROVES Media Is LYING About Fraud Claims, THIS IS WILD",32,1
1,"Lin Wood Outlines Case for Rampant Voter Fraud, GA Vote Corruption; GA Election will Be Nullified",32,1
0,Steve Cokely Exposes Gate Keepers of Black Society That Threaten Other Melanin People To Be Quiet?,33,4
1,The Media Is Actively Covering Up for the DNC — Here's What They Won't Show You About This Election,33,4
0,The 2020 Election Heist: How the Democrats and Dominion Voting Systems stole the presidency,34,1
1,KSB: S1 E57: USA Election Results 2020 | Joe Biden vs Donald Trump| Presidency in Limbo |Voter Fraud,34,1
0,Stop the Steal | Dominion election fraud story keeps getting bigger | The left brings back racism,35,3
1,Trump responds to Barr's no widespread fraud claim; Poll workers pull out boxes of ballots | NTD,35,3
0,"Trump too smart, he knew the Dems will steal the election 2 years ago. Story from Leigh Dundas -",36,1
1,"Trump Wins MAJOR VICTORY in Nevada, 1/6 of Votes TOSSED OUT, GA Audit Finds 2000+ MISSING BALLOTS",36,1
0,Leigh Dundas Explains Trumps 2018 Executive Order as it relates to 2020 Election Fraud.,37,1
1,"Update and a reminder From a Human Right Attorney Leigh D, On Ex.Order from 2018/ State of Emergency",37,1
0,Tucker Carlson *PROVES* Fraud In Election 2020 - Tucker Carlson Tonight 11/11/20,38,3
1,The Most Important Video of the 2020 Election | True the Vote 2020 - HD,38,3
0,Biden wird niemals Präsident: Richterin Jeanine Pirro interviewt Anwalt Lin Wood zum Wahlbetrug,39,1
1,"Biden Straight Up SAYS Democrats Running MASSIVE VOTER FRAUD, A Gaffe To End All Gaffes",39,1
0,Episode 1189 Scott Adams: Fake News Coverage of the Fake Recounts of the Rigged Polls,40,1
1,Sequoia Part 2 Logic and Accuracy Test vs Election Mode with vote-stealing firmware.wmv,40,1
0,"""CLARK COUNTY VOTER FRAUD"" - Election Fraud - Nevada Vote Fraud - Nevada Ballot Fraud - Clark County",41,1
1,Voter fraud on steroids. Black 007. Find your alphabet soup group ancestors! Small victory in Cali.,41,1
0,"NV Election Fraud Hearing: 19,000 Out of State Voters, 8,000 Votes from Fake Addresses, 1,500 Dead",42,1
1,"EXPLOSIVE Testimony in PA Voter Fraud Hearing - ""BAGGIES of Flash Drives"" Input Into Voting Machines",42,1
0,VOTER FRAUD EXPOSED Exclusive News Report by Louder with Crowder by Eyewitness Attorney in Michigan,43,1
1,"AG BARR EXPECTED A BIDEN ""WIN"" SINCE OCT! SELLS OUT PATRIOTS, SETS UP USELESS DURHAM SPECIAL COUNSEL",43,1
0,A Simple Review of Legal Matters Concerning Election Fraud: Does the Trump Legal Team Have a Case,44,3
1,"Lewandowski Shows Evidence of Dead Voter in PA:""This is Hard Evidence,"" Media Need to ""Do Your Jobs""",44,3
0,"Trump Dangles The Bait,GSA,[DS] Takes The Bait,Truth Transparency The Only Way Forward - Ep. 2337b",45,4
1,Trump's 136 special powers if state of national emergency declared; Will Julian Assange be pardoned?,45,4
0,"Trump Voter Fraud hotline prank calls by Angry Black Guy, 7 Mile OG, Angry Chinese Man - Soundboard",46,3
1,COMEDY! Tik Tok PrankCall Trump & Giuliani Voter Hotline nonstop - GenZ  closingdown Lame Duck Trump,46,3
0,"Election 2020 rig votes in Fulton County, GA Ruby Freeman & Daughter Shaye Moss may have colluded in",47,1
1,GSA Head Will Go Down As One The 'Great Obstructors' Of Our Time: Columnist | Morning Joe | MSNBC,47,1
0,12/12/20 Live From DC - Jericho March / Rally as we Stand 4 Righteousness & Rally 4 The Truth,48,1
1,Rick Grenell Holds Rally in Las Vegas to Stop the Steal - Illegal Ballots Are Being Counted,48,1
0,Actor Jon Voight says fighting 'lie' that Biden won is 'greatest fight since the Civil War',49,1
1,Dr Corsi NEWS 12-08-20 Corsi Files Corsi v Biden at SCOTUS,49,1
0,"Joe Biden Loses His Mask, Handlers Escort Him on Walking Boot - Looks Like He’s in a Nursing Home!",50,4
1,President-elect Joe Biden & Vice President-elect Kamala Harris Address the Nation,50,4
0,Joe Biden admits to organizing voter fraud and for Obama  as well. watch before it gets deleted,51,1
1,How certain are we about large scale election fraud❓Could Biden know❓ Let us take a dive,51,1
0,Rep. Vernon Jones Full Speech at March for Trump Rally in DC 12/12/20,52,1
1,"Joe Had A Busy Day Calling Trump Supporters ""Chumps"" & Explaining His ""Voter Froud Operation""",52,1
0,Voter Fraud Caught On CNN Millions Of Trump Votes Stolen On Live TV- a CLIP FROM MY NEW CHANNEL CTR,53,1
1,Stinchfield: The greatest political heist in election history may have just been caught on camera,53,1
0,GREATEST PRESIDENTIAL ELECTION HEIST IN *HISTORY(!)MOST LAW ABIDING AMERICANS NEVER SAW IT COMING(!),54,1
1,TRUMP TEAM HAS THE PHYSICAL EVIDENCE! SIDNEY POWELL HAS SHREDDED BALLOTS! GA VOTING MACHINE AUDITED!,54,1
0,PROOF GEORGIA WAS STOLEN!  VIDEO surveillance video of the BOXES of BALLOTS counted in secret!,55,1
1,"MASSIVE VOTER FRAUD! BIG TECH SHIFTS AT LEAST 6,000,000 VOTES TO BIDEN! LISTEN POLL WATCHERS TESTIFY",55,1
0,Dick Morris Georgia Recount Fake Dick Morris Georgia Recount Fraud low ballot rejection rate .002 BS,56,1
1,Matt Schlapp: I have never seen the types of voter irregularity that we have seen in Clark County,56,1
0,'A Danger': Trump Insider Who Went To Prison On Trump’s Life After WH | The Beat With Ari Melber,57,3
1,"FBI reports 500,000 fake ballots; Sean Hannity: US in deep trouble if nothing is fixed | Front Page",57,3
0,Trump ends funds to CCP military; Glitches found in key states; Giuliani: 650k illegal votes in PA,58,1
1,Gen. McInerney says:This is not voter or election fraud but TREASON.Trump should arrest all traitors,58,1
0,#stopthesteal is occupying dc the revolution is televised,59,1
1,Virstyne On Robert Scott Bell #stopthesteal #walkaway Parler:@realtruthertalk,59,1
0,ALERT MEDIA DOES NOT CALL AN ELECTION BREAKING LEIGH DUNDAS JUST GOT OFF A  CALL WITH TRUMP'S LAWYER,60,1
1,SIDNEY ON FIRE! NAMES GOP CROOKS UNDER INVESTIGATION/35K VOTES ADDED TO EVERY DEM/BIG GA NEWS ON MON,60,1
0,'A Fool': MAGA Fans Turn On Barr After Debunking Trump's Fraud | The Beat With Ari Melber | MSNBC,61,1
1,AG Barr On Universal Mail-In Voting: “This Is Playing With Fire…Very Open To Fraud And Coercion”,61,1
0,One of evidences of #votefraud #electionfraud #ElectionResults2020 #Election2020 by demon...,62,1
1,"WOW! THIS IS A TRAIN WRECK! Joe Rogan, MatPat, HBO Max, & Melissa Carone's ""Election Fraud"" Mess...",62,1
0,"Biden praises Dems for election Fraud win. Election reversal give Trump landslide win. Dec. 21, 2020",63,1
1,"The Smoking Gun – Slaying the DixiDemocrat Fraud Dragons, Biden not Certified as Winner in any State",63,1
0,VOTER'S IN PA VOTED FROM THE GRAVE D.O.B.1800-1900! IS THIS ENOUGH EVIDENCE YET?,64,1
1,“EVIL DOESN’T PLAY FAIR” ELECTION FRAUD SHRED🎸 ROCK OUT WITH YOUR KRAKEN OUT!💪🇺🇸 by MONA FISHMAN,64,1
0,"Curtis Ellis: ""Wussy, Wimpy, RNC Bedwetters Refuse to Go to Philadelphia to Battle Voter Fraud""",65,3
1,Michigan Hearing | Watch how Jenna Ellis Fired back at democrats at her Closing statement,65,3
0,Police Arrive at At Jim Miller Park after GA Whistleblower claims BALLOTS were being destroyed,66,1
1,Former District Attorney Kline Explains The Story Of The Missing Truck Load Of Ballots,66,1
0,Sidney Powell 11/10/20 Laura Ingram Soros #StopTheSteal,67,1
1,"Sidney Powell, Lin Wood expected to speak at the  'Stop the Steal' rally in Atlanta Georgia",67,1
0,ELECTION FRAUD LATEST AND COVID LAWSUIT REPORT,68,3
1,ELECTION FRAUD IS NOT A CRIME -- BUT PERJURY IS,68,3
0,"STOP THE STEAL SALSA SONG- BY RUBEN OBED""  Nothings the perfect Crime",69,1
1,STOP the STEAL MAGA DC MARCH:  Peaceful Protest !! - Tina Forte,69,1
0,Supreme court moves mail-in ballot case deadline; Georgia burst pipe was overfull urinal: Inspector,70,3
1,GOP’s Final Plan to Flip Votes To Trump Says NYT & Judge Orders Release of Examination Of Dominion,70,3
0,BUSTED! FBI Agents Arrest Cincinnati Democrat For Accepting Bribes in Exchange For Votes,71,1
1,This Poll Should Scare Democrats so Bad That They Should WANT Trump to Win this Election!,71,1
0,Mayor Rudy Giuliani Lays Out the Election Fraud Case & Progress to Steve Bannon at War Room 11-24-20,72,1
1,LIVE: Trump lawyer Giuliani appears in front of Michigan House Oversight Committee (Dec. 2) | NTD,72,1
0,"Voter Fraud!!!!! Man Gets Angry At Ballot, Flips it off, Then Throws It Away!!! ATLANTA GA",73,1
1,"Millis, MA Town Clerk CONFIRMS GLITCH That Sent Mail-In-Ballots To Voters That Didn't Request Them!",73,1
0,Ned Staebler & Abraham Aiyish threaten/dox Wayne County Republicans Monica Palmer & William Hartmann,74,1
1,PA Whistleblower Did Not Recant; Voter Fraud in Michigan; Mail in Discrepancy| Beyond The Noise,74,1
0,Why why why why why (Biden REMIX) [1 hour loop],75,4
1,Biden admite el fraude en un acto fallido y la hija del alcalde de Blasio no se queda atrás,75,4
0,Dr.SHIVA LIVE: The Engineering of #ElectionFraud. Inventor of  Voting System Joins Dr.SHIVA.,76,1
1,Tech Millionaire Funds Hacking Team - 2020 Election 100% Rigged - Chanel Rion at OAN (11-24-2020),76,1
0,What does 'voter fraud' look like? An Idaho elections expert explains what it would look like,77,1
1,Why Did The Left Care So Much About Election Fraud...Before The Election? - Dan Bongino Show Clips,77,1
0,Eric Discusses Today's Public Hearings In Three Swing States To Look Into Voter Fraud.,78,3
1,Every Legal Vote and Election Fraud 2020 Election with Glenn Beck and Kevin Freeman,78,3
0,EVIDENCE 7: Flip Votes From Republican to Democrat • Voter Fraud 2020 + Dead Votes + Backdating,79,1
1,"Lewandowski: A Woman In PA “Voted In This Election…A Full Nine Days"" After She Passed Away",79,1
0,Qanon ~ STAPLE STREET CAPITAL OWNS CLINTON DOMINION VOTING SYSTEM MACHINES.CEO DONOR TO BARACK OBAMA,80,1
1,TRUMP TEAM'S FULL VIDEO of VOTER FRAUD in FULTON GA. Just FOUND the NIGHT of 12/02/2020! VIDEO PROOF,80,1
0,Smartmatic  and London elections and Police and crime Commissioners,81,3
1,Those involved in election fraud may die for treason or at least go to jail for life.,81,3
0,Poll watcher: I witnessed Republican poll watchers being ejected from the room throughout the night,82,1
1,"Burden of Proof Is on Election Officials not on Trump; GOP Leadership Doesn't Matter, People Matter",82,1
0,"AG Barr Announces DOJ Voter Fraud Probe, MI Poll Watcher Says She Saw Invalid Votes Being Counted",83,1
1,Deep State Bill Barr is Gone! Election Situation is Causing States To Go With Donald Trump,83,1
0,Articia Bomer (Michigan Witness) Recounts 50 Boxes of Ballots Dropped off Election Night in Detroit,84,1
1,Mich Voter Fraud Witness Jose Aliaga saw the 4am Biden Ballot Drop!,84,1
0,How Democrats cheat live on CNN. A live view of the hammer and scorecard working! SHARE THIS VIDEO!,85,1
1,EX CIA top official confirms: Dems fell for a Voter Fraud Sting Operation. Trump 10D chess,85,1
0,"Democrat Jeff Irwin LYING again! Witness KILLS it! We don't need new LAWS, just ENFORCE them!",86,1
1,Congressman Jody Hice on the video from Georgia: You cannot sweep under the rug a BOMBSHELL video,86,1
0,‘Does this inspire confidence?’: problematic recount in Georgia; Possible path to a Trump win | NTD,87,3
1,Trump Is The Loser Of The 2020 Race And AG Barr Can’t Change That | The Beat With Ari Melber | MSNBC,87,3
0,Sidney Powell Says She Will RELEASE THE KRAKEN and Expose How Dominion STOLE THE ELECTION,88,1
1,HUGE: Sidney Powell Drops HARD EVIDENCE - Pictures of Check Stubs Paid to People to Ballot Harvest,88,1
0,"Trump alleges voter fraud,We want the law to be used in a manner. Will be going to the Supreme Court",89,1
1,'Trump relies on voter suppression': Stacey Abrams on her fight for voting rights,89,1
0,Amazing? South Korea's Digital Vote Counting Machine -  2020 South Korea's rigged general election,90,1
1,HUGE Win for Trump as Judge Orders Dominion Voting Machines in Georgia IMPOUNDED!!!,90,1
0,"Did Jerry Nadler Poop His Pants? Plus, Pelosi Won’t Try Impeaching Trump: ""Not Worth The Trouble""",91,4
1,"Nancy Pelosi Malfunctions in Live Interview ""We have our options We have arrows in our quiver""",91,4
0,STOP THE STEAL | Hawaii State Capitol | 11/14/2020,92,1
1,'STOP THE STEAL': The Legal Battle Over the 2020 Election | The News & Why It Matters | Ep 657,92,1
0,Pennsylvania Seems to Be Counting Naked Ballots & Other Invalid Ballots Based on News Reports,93,1
1,"Software That FLIPPED Michigan For Democrats WAS USED IN 30 STATES, Ballots MUST Be Counted By Hand",93,1
0,"James O’Keefe DEBUNKS Joe Rogan criticism, challenges him to go on JRE to discuss Veritas methods!",94,1
1,Trump Recount Committee staffer tells Newsmax the server raid was real and raw data showed different,94,1
0,"Mark Levin ""There is more evidence of VOTER FRAUD than there was EVER evidence of Russian Collusion""",95,1
1,"Direct Evidence 1 to 28, Illegal Early Voting, Mail-in Voting Fraud in South Korea 2020",95,1
0,"EVOLUCIÓN DEL KRAKEN, TRUMP EN GEORGIA Y EL GOLPE MAESTRO AL ESTADO DE DERECHO DE LOS EE. UU.",96,4
1,🔴NOTICIAS HOY 22 NOVIEMBRE 2020 NEWS TODAY  FBI Captura y Pone tras las Rejas a Demócrata por Fraude,96,4
0,"A PROCLAMATION. HUMAN RIGHTS DAY, BILL OF RIGHTS DAY, AND HUMAN RIGHTS WEEK, 2020. Enable Subtitles.",97,4
1,Nathan Whitehead - Days Gone (From Days Gone Original Motion Picture Soundtrack),97,4
0,LIVE | STOP THE STEAL - ANTI-LOCKDOWN - BLM PROTESTS,98,1
1,LIVE - STOP THE STEAL - GEROGIA USA - PROTEST - PROUDBOYS ANTIFA BLM,98,1
0,Sidney Powell With Lou Dobbs: AZ Witness Says Handed Out 35K Votes To Dems. Just To Start It Off!,99,1
1,Trump and Powell Double Down On Wisconsin; CNN Tapes Reveal Hidden Democrat Agenda |Beyond The Noise,99,1
0,DIRECTOR'S CUT: GA VIDEO PUTS CROOKS & GOV IN HOT SEAT/GOP CALLS OUT AG BARR+ NV/SCOTUS/BIDEN-HARRIS,100,1
1,FOX LEADING BIDEN CHARGE FOX COMMUNIST MEDIA FOX BOYCOTT NOW  #STOPTHESTEAL,100,1
0,"PA Crowd APPLAUDS President Trump and Rudy Giuliani -- Starts Chanting, ""Trump! Trump! Trump!...""",101,1
1,Leftists Start to PANIC as DEEP STATE Tries to SILENCE Eyewitnesses to VOTER FRAUD!!!,101,1
0,"Blacks, Latinos rally for Trump: fight for our country | DC 'Stop the Steal' rally highlights | NTD",102,1
1,"Alyssa Milano WRECKED By Trump Supporters Over ""UNITY"" Tweet (Woke Hollywood)",102,1
0,It Is being exposed,103,1
1,It Is being exposed,103,1
0,LIVE: Michigan Election Hearing for Voting Issues and Fraud | Lansing Michigan | Post Election | USA,104,1
1,Witness in MI Hearing talks about truck of mail-in ballots showing up at 4 a.m. on election night,104,1
0,Eric Skeldon Exposing Any Fraud Mail In Votes in Election 2020 | Trump Victory #ElectionFraud,105,2
1,This Is An All-Out Assault On American Democracy: Eddie On President Trump's Voter Fraud Claims,105,2
0,Congressman Biggs joins OAN to discuss the AZ Supreme Court Voter Fraud Ruling and the NDAA,106,1
1,"Interview of Patrick Byrne, tech millionaire founder of Overstock by Chanel Rion. #VoteFraud",106,1
0,Media calls for unity Biden calls for unity Trump peaceful transition NO stolen election two USAs,107,3
1,Joe Biden Promises To Eliminate Fracking and Fossil Fuels. He will kill jobs and raise energy costs.,107,3
0,🇺🇸 Team Trump [2 de 3] | Rueda de Prensa de los Abogados del Presidente (19 nov 2020) [subtítulos],108,4
1,Une vidéo qui sera jamais vue à la TV - Trump dénonce l'élite criminel et la corruption généralisée,108,4
0,Trump & America’s Last Stand Happening Now! Nuclear Option Deployed As States Run To The Battlefield,109,3
1,What if Trump Loses? What's next? What's the Game Plan?,109,3
0,Election update followed by remarks by President Trump,110,3
1,LIVE: Wisconsin’s chief election official gives an update on the state’s election results,110,3
0,"Sidney Powell: ""We will not be intimidated. President Trump won by a landslide | We will prove it.",111,1
1,"CNN Runs Segment Saying Trump COULD STILL WIN, Democrats Oblivious As Trump On Track For EC Victory",111,1
0,Up to 280K Ballots Vanished In Move from NY to PA: Kline; New $900B Aid Pkg proposed | NTD Business,112,1
1,2 Mail Carriers Federally Charged After Allegedly Dumping Bags Of Undelivered Mail In Trash,112,1
0,“We have put together the most  inclusive VOTER FRAUD organization in American politics”,113,1
1,BIDEN ADMITS TO VOTER FRAUD!  @JoeBiden brags about having the “most extensive VOTER FRAUD organizat,113,1
0,"""Woah Woah"": Fox News Neil Cavuto CUTS OFF Press Conference As Trump Team Outlines Voter Fraud Case",114,1
1,WOW! Fox graphic closing down Trump claiming election was rigged then report he can't pardon himself,114,1
0,Right-wing group claims it has evidence Rep. Ilhan Omar i is illegal ballot harvesting,115,1
1,"Police GO AFTER Ilhan Omar For ELECTION FRAUD! Potential BIG TROUBLE For ""Squad Member"" Ilhan!",115,1
0,Wisconsin shooting live | US Politics Live Streamer | Live Stream Happening Right Now | nwa,116,1
1,"CNN caught vote switching in Pennsylvania on election night 19,000 vote switch from Trump to Biden",116,1
0,"Trump: „Nichts, das es wert ist getan zu werden, war jemals, jemals, jemals leicht.“",117,4
1,#TRUMP 🇺🇸 https://www.stormviews.net?ref=5fda74232b783 https://www.stormviews.net?ref=5fda74232b783,117,4
0,The Smoking Gun Election Evidence You’ve Been Waiting For Is Here! It’s So Powerful CBS Admitted It!,118,1
1,BOMBSHELL Intel By Tech Giant Insider BLOWS THE LID OFF The Entire Election Narrative!  BOOM!,118,1
0,How to Apply Voter ID Card Online  In Tamil | ஆன்லைனில் Voter id அப்பளை செய்வது எப்படி? | VOTER ID,119,1
1,Live Voter Fraud On CNN - LIVE FEED gets updated.egregious example voter fraud ever on live TV.,119,1
0,Proof LAID OUT ON BIG SCREEN 👀😳🤭Arizona State Legislature Hearing on election fraud. Part 4,120,1
1,BOMBSHELL VOTER FRAUD REVEALED!!! | Lin Wood Exposes Voter Fraud and Shares How Kyle Rittenhouse...,120,1
0,Evidence RIGGED Election! Voter Fraud! US Election 2020 Wisconsin Michigan Pennsylvania Election Day,121,1
1,We are in the throes of a coup attempt in the US. Voting fraud is being exposed everywhere.,121,1
0,"No, Joe Biden Has NOT won the Presidency of the United States. Here's Why!",122,1
1,"BIDEN ""PROJECTED"" WINNER: IS IT OVER? Well... They ""Projected"" Gore In Florida & Retracted In 2000!",122,1
0,"WI GOP Commissioner Bob Spindell Speaks at Stop The Steal Bus Stop in Madison, WI 12/7/20",123,1
1,"Nick Fuentes Gives His Final Speech on the Final Day of the #StoptheSteal Rally in Phoenix, AZ",123,1
0,They've Always Known about Dominion/Smartmatic Election Rigging - 2006 CNN Election  Fraud Report,124,1
1,"Breaking News!  D0minion Software, Cl1nton F0undati0n link hosts 50%+USA vote machines, SV roots.",124,1
0,"THEY STOLE MINNESOTA! they use something called the ""2% strategy"".Heres how it works (MAKE IT VIRAL)",125,1
1,GA Senator BUSTED trying to defend VOTER FRAUD and gets SHUT DOWN by CHAIRMAN Trump TEAM WINS!,125,1
0,"""TRUMP 2ND TERM"" Mike Pompeo Says President Trump WILL Have A 2nd Term",126,1
1,‘A Trump loss is improbable to the point of impossible’—look at the math—Trump Advisor Steve Cortes,126,1
0,THEY GOT CAUGHT CHEATING SO NOW THEY'RE MAKING LAST MINUTE RECOUNT RULE CHANGE/DOE MINYON/MICHELLE O,127,1
1,10 ATHLETES WHO GOT CAUGHT CHEATING,127,1
0,Hacking Democracy - The Hack:  WATCH THE FULL MOVIE https://vimeo.com/ondemand/hackingdemocracy,128,3
1,Kill Chain: The Cyber War on America’s Elections | Malware and Social Engineering (Bonus Clip) | HBO,128,3
0,#Ted Cruz #ElectionFraud The Media Wants Nothing More Than To See #PresidentTrump Lose. #VoterFraud,129,2
1,"Olbermann vs. Trump #24 - Relax! Trump's ""Re-counts"" Are Just Another MONEY SCAM!",129,2
0,"Fraudes durant les élections et votations, en Suisse comme aux USA. Entretien avec F. de Siebenthal",130,3
1,"Cortes With Stenchfield: From The 14th To The 12th Amendments, Trumps Legal Path To Victory",130,3
0,Hammer & Scorecard software application demonstrated in real-time in 2020 election.,131,1
1,"Hammer & Scorecard - Live video Footage - 19,958 Vote Flip.",131,1
0,CENSORSHIP: Big Tech Won't Let You Say There Was Election Fraud (And There Was!),132,1
1,How Big Tech Shifted 6 Million Votes; PA Judge Refuses to Certify; 1000s Fake Addresses in Georgia,132,1
0,Trump on NWO Globalists Democrat DNC Swamp Voter Fraud STOP STEAL current events November 29 2020,133,1
1,Nigel Farage: No doubt there was 'industrial scale' ballot harvesting in US Election,133,1
0,Catholic — Campaign 2020 — Post-Election Special: Looming Deadline,134,3
1,Catholic — Post-Election Special: Heading to the Courts,134,3
0,"America Stands: Election Coverage (Dec. 2, 2020)",135,3
1,"America Stands: Election Coverage (Nov. 30, 2020)",135,3
0,Michigan Election Fraud Witness Claims He Saw Poll Workers Filling Out Straight Democrat Ballots!,136,1
1,Active Military Ballot Fraud Eyewitness Account Detroit and What You Can Do About It,136,1
0,"The Media Cuts Off Trump On NATIONAL TELEVISION, Stop the Steal Trends on Twitter",137,3
1,"Gen. Flynn: This is not about President Trump, this is about our Constitution, we want truth | NTD",137,3
0,Seb Gorka: This isn't about one man or one party. It's about suitcases of ballots counted illegally,138,1
1,I-Team: County received mail-in ballot from Nevada woman who died in 2017; state investigating 2 all,138,1
0,Sydney Powell 450.000 illegal votes - Sunday Morning Futures W/Maria Bartiromo 11/8/20,139,1
1,Sidney Powell's 30 claims of voter fraud in Georgia lawsuit; GOP flips 3rd House seat in California,139,1
0,"MI GOP Activists Kristina Karamo, Dr. Linda Lee Tarver Demand Investigation Into Sec of State Benson",140,1
1,"Dems Went Down To Ga, WI, MI, AZ, NV and PA Looking for some V-O-T-E-S to Steal",140,1
0,US Congressional Candidate Mauro Garza had a lot more to say on the phone than he did in person,141,3
1,TRUMP TAKES QUESTIONS: President Trump Answers Reporter Questions for First Time Since Election Day,141,3
0,ELECTION DAY! Gangs of New York,142,3
1,"ELECTION WAR ROOM, SUNDAY UPDATE Ft. BRANDON TATUM & MORE!",142,3
0,"CNN says it's ""illegal"" to look at Wikileaks emails, but says the media is above the law",143,4
1,FBI Serves Subpoena In Corruption Probe Of Leader Of Trump SCOTUS Election Ploy | Rachel Maddow,143,4
0,Ep 110) The Left Is Following The Tyrants Playbook | #StopTheSteal,144,1
1,General Flynn 11/27/20 Must Watch Link In Description. #StopTheSteal #MAGA,144,1
0,"Trump Electors and ""Stop The Steal"" Coalition Holds Press Conference on Capitol Hill  (12/15/2020)",145,1
1,LIVE: Attorneys for Donald Trump hold news conference amid news that Joe Biden has WON 2020 election,145,1
0,The Price is Right Losing Horn - Gaming Sound Effect (HD),146,1
1,10 Hours of The Price is Right Losing Horn,146,1
0,ATN Live: Trump Voter Fraud Falls Apart; Dave Rubin On Defund The Police; Dem Leadership & More,147,3
1,"Prayer for Rush Limbaugh, prayer to prevent voter fraud in the election and for revival in America.",147,3
0,12/06/2020 Miles Guo：CCP PLA only threaten and frighten its own people！,148,4
1,She asks AOC to put her in the top of her communist archive of Trump supporters,148,4
0,"Democrat BREAKS DOWN Crying After Losing House Seat, Dems Erupt Into Chaos Over Massive House Defeat",149,3
1,The numbers 'do not stack up' in the US presidential election: Jones,149,3
0,Crowder reads 234 Pages of sworn affidavits - Election fraud and voter fraud is what they found,150,1
1,Expert witness says he believes the numbers in Arizona are fraudulent based on the data,150,1
0,El expediente sexual de Biden | Primero la Verdad | Reinaldo Carrillo | Factores de Poder,151,3
1,"Jay Campbell and I discuss the Biden election lie. DUMBS opened to the public, Med Beds, Etc.",151,3
0,VOTER FRAUD!!! PROGRAMMER UNDER OATH ADMITS ELECTRONIC VOTING DEVICES ARE HACKABLE.,152,1
1,MORE WAYS TO PROVE VOTER FRAUD AND HAS NOTHING TO DO WITH ALGORITHM'S OR COMPUTER FRAUD!!!,152,1
0,MORE EVIDENCE OF BALLOT FRAUD!/CAUGHT ON VIDEO REDHANDED!/BIG MEDIA JUST BRUSHES IT OFF!,153,1
1,"12.4.2020,TRENTO HOUR with SUZI GOLD - GEORGIA VOTER FRAUD - CAUGHT ON CAMERA!",153,1
0,Michelle Obama's  All this for a damn flag  shown at three different speeds,154,4
1,"Biden Adviser Zeke Emanuel: let the elderly die, there is no life after 75.",154,4
0,Stephen Miller: We have more than enough time to right the wrong of this fraudulent election result,155,1
1,There was NO election fraud NEVER has been Get over it and Shut UP about it! - MSM,155,1
0,Pennsylvania AG's Brief Crushes Texas AG's Supreme Court Suit. Here's why Trump will Lose ... Again,156,3
1,"NEW Lawsuit on Flynn Unmasking by Deep State, Fauci Emails on COVID, Biden-Burisma Corruption & More",156,3
0,TRUMP may WIN LAWSUIT in Nevada! JUDGE says TRUMP'S CASE has MERIT! Media LIES AGAIN!!! NOT A LOSS!!,157,1
1,Election Bombshell! PA Court Issues Opinion On Trump Path To Victory 'Likely To Succeed' -CNN Agrees,157,1
0,US election security officials reject Trumps fraud claims – 8:53 AM 11/14/2020,158,2
1,"Trump camp: 234 pgs of election fraud affidavits; Trump wins NC, AK; Grassley asks DOJ: probe Hunter",158,2
0,New Tape Shows Donald Trump And Jeffrey Epstein At Mar-A-Lago Party In 1992 | TODAY,159,4
1,"Without Me - Trump parody, Eminem cover by Joyce the Voice  11/11/20",159,4
0,A Closer Look At The Real-Time Electr0nic V0te Counting Frawd That Took Place With The PA Totals,160,3
1,"Biden insists 'all votes be counted', Trump insists 'all legal votes be counted'",160,3
0,"Vernon Jones, Democratic State Rep in Georgia, calls for a special session in the general assembly",161,3
1,Georgia slammed by Powell's 104 page lawsuit; Exposed: The hands behind Dominion? | Front Page,161,3
0,DID AG BARR DOUBLE-CROSS TRUMP!? More and More Evidence Of Fraud In Michigan. WILL IT EVER STOP!?,162,1
1,This Poll Witness Testimony in Michigan is the ONLY Proof Needed to Prove the Election was a Scam,162,1
0,"FBI Steps In,  Requests Illegal Ballot Data From Former Trump Campaign Data Chief Matt Braynard",163,1
1,Georgia Democrats Are Going Door-to-Door to Fix Flawed Ballots...Democrat Ballots,163,1
0,BLOCKBUSTER ELECTION FRAUD INTERVIEW: General Flynn Along With Lt. General McInerney & Mary Fanning,164,1
1,YOU WANT THE TRUTH?   CAN YOU HANDLE THE TRUTH?   HERE IS WHO STOLE THE ELECTION.,164,1
0,"“We have our options. We have arrows in our quiver that I’m not about to discuss right now,” -Pelosi",165,1
1,"Sidney Powell: ""Tons of evidence hundreds of thousands of ballots are going to have to be discarded""",165,1
0,【#大紀元直播】華盛頓制止竊票支持川普集會Stop The Steal/Ride for 45 ｜#大紀元新聞網,166,4
1,🇺🇸加州蝴蝶🦋有话说☕️11/14/2020 第24期。全美 #StopTheSteal停止盗窃大游行视频直播链接集合。为众人抱薪者，不可使其冻毙于风雪。为自由开道者，不可令其困厄于荆棘。请转发,166,4
0,Joe Rogan Experience #1555 - Alex Jones & Tim Dillon,167,3
1,Ep. 1396 What the Heck is Going on With the Vote in Michigan? - The Dan Bongino Show®,167,3
0,ROUND TABLE DISCUSSION: The 2020 Election—An Intelligence War With Very High Stakes for the World,168,3
1,Adrian and Jillian debate it out on Election Day in front of poll station you decide who won?,168,3
0,Trump: 'I Will Never Give Up Fighting for You or Our Nation' | The News & Why It Matters | Ep 658,169,1
1,Gen. Flynn speaks at pro-Trump rallies: ‘We cannot accept what we are going through as right’ | NTD,169,1
0,"Election is Far from over, Trump will be your President, Voting fraud is real, The Great Awakening",170,1
1,"GOP Electors Cast DUELING Votes For Trump Challenging Biden's Win, But Democrats Say IT'S OVER",170,1
0,Social Worker Charged With Election Fraud! 😨134 Felony counts! USA Election 2020 Update,171,1
1,Florida man arrested for voter fraud after allegedly requesting ballot for dead woman,171,1
0,Sidney Powell: “I Am Going To Release The Kraken...I Am Going To Expose Every One Of Them.”,172,1
1,Election fraud destroying Kraken have been released. Expect massive repercussions for the cheaters.,172,1
0,ERIC COOMER  How do we alter votes using the D0MINI0N system?  Eric explain how it's done,173,1
1,Election officials ORDERED to back date voter ballots DNC Voter issues Proof Tyranny Current Events,173,1
0,Chain of Custody & Return Addresses | Clipped from Louder With Crowder #MugClub #StopTheSteal,174,1
1,Election Shenanigans All Around! Dead People Voting? Electronic 'Glitches'?| Louder With Crowder,174,1
0,Georgia Vote Fraud  Georgia Vote Fraud  Georgia Vote Fraud,175,1
1,Georgia election officials shows frame-by-frame of State Farm Arena Election Night video,175,1
0,"Black millennials explain they're not voting for Biden, crime bill, and one is voting for Trump",176,1
1,"Someone used the identities of dead people to vote in the presidential election, here's the proof",176,1
0,"Rudy holds a press conference at the 4 Seasons, Trudy covers the phones for the voter fraud hotline",177,1
1,"Rudy Giuliani to Michigan Legislators: You Know How You End Voter Fraud? ""You Put Criminals in Jail""",177,1
0,"Epic Montage: You Don't Have to Like Trump,  But After Seeing This, You Can't Vote for Joe Biden",178,3
1,Fr. Altman: The blood of babies is 'on the hands' of bishops if Biden wins in 2020,178,3
0,Lt. Gov. Dan Patrick puts up $1 million for voter fraud tips despite no evidence of widespread fraud,179,3
1,80 Million Votes! Venezuelan Officer Is An American Hero! Sidney Powell With Greg Kelly.,179,3
0,Day Drinker 🍷 & Queen of CRINGEVILLE Cynthia Johnson ‘Biden and Harris Owe the City of Detroit’,180,4
1,Day Drinker 🍷 & Queen of CRINGEVILLE Cynthia Johnson ‘Biden and Harris Owe the City of Detroit’,180,4
0,Trump's remaining days in White House could 'sabotage' Biden's victory | 60 Minutes Australia,181,3
1,Why Biden as President would signal the approaching the End of America and Democracy.,181,3
0,Scott Walter Speaks to the Georgia Senate on the Center for Tech and Civic Life's Election Spending,182,3
1,Amy Coney Barret NUKES Entire Democrat Establishment During Final Day Of Hearing! ACB IS SUPREME.,182,3
0,"Roger Stone, General Flynn, and cheating Democrats. Harmeet Dhillon with Dr. Gorka on AMERICA First",183,1
1,"Sebastian Gorka With News The Media Refuses To Air, Voter-fraud & The Evils Of Socialism & Communism",183,1
0,🛑StopTheSteal🗳️Protest Takes Over Steps of GA State Capitol with State Rep Vernon Jones,184,1
1,"The Proud Boys speak at the #StopTheSteal rally in #Lansing, Michigan Saturday 11-21-2020",184,1
0,Project Veritas #RiggedElection Investigation Takes Over Texas News Cycle,185,1
1,"RIGGED ELECTION: TX 'Ballot Chaser' Illegally Pressures Voters To Change Votes; ""I could go to jail""",185,1
0,CEO of Dominion Voter Software Was A No Show Making Trump's Case of Voter Fraud Believable,186,1
1,"""If They Have Nothing to Hide, Why Are They Hiding from Us?"" PA GOP SLAMS Dominion who SKIP Hearing",186,1
0,Jenna Ellis Clarifies Sidney Powell's Role as Trump's Legal Team Awaits Major Supreme Court Rulings,187,3
1,"Jenna Ellis, Counsel to the President, has an updated, behind-the-scenes look at the election.",187,3
0,"Why Joe Biden isn't the President ""Elect"" my thoughts on the Election and proof of voter tampering",188,3
1,"LO ULTIMO: Biden va a Negociar con Trump sobre su futuro, 🔴NOTICIAS HOY 09 diciembre 2020 NEWS HOY",188,3
0,"White Hat Hackers Have It All, This Is Not An Election, It’s A Sting Operation -Ep. 2342b",189,1
1,(ENG)David vs. Goliath: A Korean Politician’s Fight to Dig to the Bottom of a “Rigged” Election,189,1
0,"AMERICA'S MAYOR, RUDY GIULIANI LAYS OUT THE GEORGIA VOTER FRAUD CASE Watch them cheer",190,1
1,MASSIVE VOTER FRAUD BEING UNCOVERED IN MICHIGAN RECOUNT. DETROIT. JUDGE STOPS RECOUNT FOR FEAR OF...,190,1
0,"USPS contract driver testifies to driving 288,000 ballots from NY to PA. CNN Tapes. More GA news.",191,1
1,"Video evidence of voter fraud in Georgia, suitcases of ballots appear after poll watchers dismissed",191,1
0,crowd at the Supreme Court following the Million March from Freedom Plaza . Stop The SteaI Election,192,1
1,Angry Americans Protest in front of CNN for covering up voter fraud_Georgia Atlanta_Brandon Straka,192,1
0,Exposing the TRUTH About the George Soros and Bill Gates Funded Wide-Spread Voter and Medical...,193,1
1,Man Claiming to Be Democrat Party Worker BRAGS He Tossed Out THOUSANDS of Trump Ballots on Facebook,193,1
0,"AS USELESS AS TITS ON A BARR: AG BARR APPOINTS THIS GUY TO INVESTIGATE ""VOTER IRREGULARITIES"" !!!",194,1
1,MATT SCHLAPP ON VEGAS FRAUD,194,1
0,"All Patriots, stand up, Powell says;8M phone calls made by CCP organization to influence US election",195,1
1,BREAKING LIVE: Sidney Powell Suspended from Twitter and Distanced from Trump Legal Team,195,1
0,EVIDENCE OF VOTER FRAUD AND HOW THE MEDIA LIES AND HOW  THE DEEP STATE HAS  STOLEN OUR ELECTION,196,1
1,DEMOCRATS CLAIMING VICTORY WHILE THWARTING EFFORTS FOR FAIR VOTE COUNT,196,1
0,Graham on Biden abolishing oil industry: 'It's the dumbest idea in the world',197,3
1,Mike Graham: 'Trump says he's not conceding and he says he's got good reason not to',197,3
0,Proof of Election Fraud? The Best Video Evidence of Election 2020 Voter Fraud for Donald Trump,198,1
1,"Massive voter fraud 2020! #stopthefraud! share, comment and like! help me with the algorithm",198,1
0,How Benford Law Help Detect Accounting Fraud Using Excel | Data Analytics in Accounting | CPA EXAM,199,1
1,Does Benford's Law Prove Biden Election Fraud: The Truth of the Mathematical Law - TLDR News,199,1
